<?xml version="1.0" standalone="no"?>
<!DOCTYPE svg PUBLIC "-//W3C//DTD SVG 20010904//EN"
 "http://www.w3.org/TR/2001/REC-SVG-20010904/DTD/svg10.dtd">
<svg version="1.0" xmlns="http://www.w3.org/2000/svg"
 width="1370.000000pt" height="1370.000000pt" viewBox="0 0 1370.000000 1370.000000"
 preserveAspectRatio="xMidYMid meet">
<metadata>
Created by potrace 1.14, written by Peter Selinger 2001-2017
</metadata>
<g transform="translate(0.000000,1370.000000) scale(0.100000,-0.100000)"
fill="#000000" stroke="none">
<path d="M8313 13692 c-17 -2 -26 -16 -38 -58 -8 -29 -32 -81 -51 -115 l-36
-61 7 -221 c3 -121 6 -223 7 -226 2 -23 -6 -27 -47 -24 -32 3 -45 1 -46 -9 0
-7 0 -60 1 -118 l1 -105 45 -65 c160 -231 154 -224 325 -375 68 -60 138 -122
154 -137 29 -27 46 -29 85 -8 8 5 15 23 16 42 0 18 4 62 7 98 4 36 11 121 17
190 6 69 13 153 16 188 l6 62 -34 0 -33 0 1 53 c1 39 16 88 62 197 l60 145
-65 9 c-64 8 -65 8 -95 -23 -17 -17 -33 -31 -37 -31 -3 0 -17 20 -30 45 l-24
45 33 137 c29 123 31 137 16 145 -9 5 -22 15 -28 22 -10 11 -24 4 -70 -37 -32
-28 -60 -48 -62 -46 -2 2 -20 54 -39 114 -63 193 -53 179 -124 167z"/>
<path d="M7573 13046 c-42 -15 -47 -20 -49 -64 -23 -499 -11 -433 -92 -516
l-70 -71 49 -125 c81 -206 64 -185 166 -199 149 -19 131 -8 242 -144 42 -52
46 -54 95 -56 28 -1 72 -4 99 -6 45 -3 47 -2 48 23 1 15 2 41 4 57 1 17 6 86
10 155 l7 124 65 79 c62 73 65 80 53 102 -28 51 -46 63 -99 61 l-50 -1 -29 55
c-24 48 -28 65 -25 132 l2 77 -41 36 -40 37 -43 -42 c-36 -36 -47 -41 -79 -38
l-37 3 -71 160 c-39 88 -73 163 -77 166 -3 4 -20 1 -38 -5z"/>
<path d="M9052 13022 l-34 -28 33 -70 c29 -59 34 -80 35 -149 1 -44 -3 -83 -9
-86 -5 -4 -32 0 -61 7 -28 8 -52 14 -53 14 -1 0 -7 -9 -13 -20 -9 -17 -4 -31
25 -82 28 -48 37 -75 39 -117 4 -84 0 -94 -40 -86 -31 5 -35 3 -45 -22 -13
-34 -18 -22 172 -368 24 -44 53 -97 64 -117 16 -32 25 -38 51 -38 28 0 34 5
44 36 7 20 81 140 165 268 l153 231 1 237 1 238 -26 17 c-22 14 -27 15 -34 2
-5 -8 -17 -24 -28 -37 -11 -13 -37 -48 -58 -77 -33 -48 -40 -54 -63 -48 -46
11 -60 23 -66 56 -4 18 -21 49 -38 68 -18 19 -63 70 -101 114 -38 44 -72 81
-75 82 -3 1 -21 -10 -39 -25z"/>
<path d="M9860 12618 c-11 -62 -9 -115 6 -151 12 -29 17 -72 18 -139 1 -54 -1
-98 -4 -98 -4 0 -19 14 -35 30 -33 34 -40 36 -62 15 -14 -14 -13 -28 5 -138
14 -90 17 -124 8 -129 -19 -13 -81 -9 -102 7 -34 26 -42 18 -41 -35 2 -49 5
-55 136 -218 73 -92 147 -195 164 -230 l32 -63 44 3 c62 3 193 74 250 136 24
26 67 72 95 102 76 81 74 78 111 211 19 68 41 147 50 175 8 28 15 63 15 78 l0
27 -52 -29 c-29 -16 -72 -40 -95 -54 -54 -31 -104 -27 -137 12 -25 30 -24 22
-29 357 -2 93 -5 113 -19 122 -20 13 -21 11 -52 -71 -14 -35 -30 -76 -37 -93
-14 -35 -13 -32 -23 -66 -7 -24 -11 -26 -49 -22 -23 3 -45 8 -48 11 -3 4 -25
58 -49 120 -34 89 -49 116 -68 123 -24 9 -32 11 -32 7z"/>
<path d="M8350 12136 c0 -13 18 -46 40 -74 56 -70 120 -213 120 -267 l0 -44
-47 -3 c-34 -2 -49 -8 -51 -19 -2 -9 21 -52 51 -95 45 -65 54 -86 54 -121 l0
-42 -44 -3 -44 -3 32 -45 c30 -43 39 -48 203 -113 94 -38 189 -77 211 -86 80
-36 76 -38 137 48 l56 79 7 99 c3 54 8 115 11 135 17 140 -2 264 -41 274 -12
3 -33 0 -49 -5 -40 -16 -43 -14 -55 20 -8 23 -8 43 0 73 6 22 13 49 15 59 2
10 6 26 9 36 4 12 -4 22 -29 33 l-34 17 -62 -64 -62 -65 -56 6 c-52 6 -67 14
-170 90 -113 85 -147 104 -183 104 -13 0 -19 -7 -19 -24z"/>
<path d="M9437 11768 c-14 -35 -28 -94 -32 -133 -4 -38 -9 -77 -11 -85 -1 -8
-3 -25 -3 -38 -1 -13 -7 -22 -13 -21 -7 1 -45 1 -84 0 -64 -1 -72 -3 -83 -25
-12 -22 -8 -33 37 -117 51 -95 165 -312 224 -426 30 -57 37 -65 110 -103 84
-44 83 -44 92 20 6 40 52 289 97 523 17 87 28 164 26 170 -2 8 -43 12 -120 13
-65 0 -120 3 -123 6 -6 6 -12 37 -20 98 -3 25 -7 52 -9 60 -3 8 -7 33 -11 55
-13 85 -43 86 -77 3z"/>
<path d="M10770 11502 c-51 -34 -261 -171 -442 -289 -57 -37 -85 -49 -103 -45
-19 3 -24 9 -20 23 3 10 17 62 30 116 17 72 20 100 12 105 -8 5 -77 -57 -184
-164 l-171 -171 -21 -81 c-12 -45 -34 -129 -50 -187 l-29 -106 34 -26 c50 -40
336 -129 389 -121 22 3 51 7 65 9 14 2 48 7 75 11 77 10 83 11 128 36 l42 23
1 75 c2 65 5 76 25 93 13 10 70 59 126 108 113 98 131 132 98 183 -15 23 -30
29 -100 40 -11 2 -19 10 -17 17 2 8 47 92 99 187 82 148 94 175 82 187 -12 12
-22 8 -69 -23z"/>
<path d="M6427 11504 c-1 -1 -63 -5 -137 -8 -74 -4 -151 -9 -170 -11 -19 -2
-62 -6 -95 -10 -102 -10 -149 -16 -175 -20 -14 -2 -45 -7 -70 -10 -25 -3 -70
-10 -100 -15 -30 -5 -73 -12 -95 -16 -22 -3 -42 -7 -45 -9 -3 -2 -26 -6 -50
-10 -55 -8 -388 -88 -485 -117 -444 -131 -910 -331 -1290 -553 -474 -276 -965
-669 -1320 -1056 -133 -145 -189 -210 -320 -374 -168 -209 -381 -533 -529
-805 -54 -98 -196 -385 -196 -395 0 -3 -11 -28 -24 -57 -127 -273 -282 -757
-351 -1096 -39 -187 -77 -427 -90 -567 -4 -38 -8 -81 -10 -95 -27 -177 -27
-822 -1 -1075 7 -69 37 -312 42 -335 2 -14 7 -41 9 -60 12 -77 68 -351 91
-445 48 -193 157 -542 199 -640 7 -16 18 -46 25 -65 7 -19 18 -48 25 -65 7
-16 32 -75 55 -130 49 -115 160 -343 223 -460 25 -44 59 -107 77 -140 18 -33
36 -61 41 -63 5 -2 9 -8 9 -13 0 -21 191 -307 330 -494 279 -376 649 -758
1015 -1049 33 -26 68 -53 77 -61 98 -80 422 -301 551 -376 33 -19 73 -42 90
-53 238 -142 610 -316 889 -417 176 -64 398 -135 453 -145 16 -3 32 -7 37 -10
4 -3 16 -7 25 -9 10 -2 85 -19 167 -39 144 -35 429 -87 551 -101 33 -4 71 -9
85 -11 89 -15 242 -19 680 -19 443 0 559 3 680 20 19 2 55 7 80 10 25 3 70 10
100 15 30 5 75 12 100 15 25 4 75 13 112 21 37 7 82 16 100 19 27 5 111 24
221 51 9 2 26 6 36 8 135 30 603 182 696 226 11 5 65 28 120 50 436 181 913
463 1310 774 50 39 92 73 95 76 3 3 32 27 65 55 463 382 932 937 1247 1475 80
137 92 159 177 325 68 133 91 181 161 340 102 232 262 717 305 924 2 9 13 59
24 111 24 112 26 122 51 265 11 60 22 130 25 155 3 25 7 61 10 80 2 19 7 64
10 100 4 36 8 75 10 88 20 126 28 725 12 937 -5 61 -10 133 -12 160 -2 28 -6
64 -9 80 -3 17 -8 57 -12 90 -3 33 -8 62 -9 65 -7 12 15 28 155 112 201 120
193 112 134 128 -27 7 -67 18 -89 25 -22 7 -66 18 -97 25 -32 7 -58 16 -58 19
0 3 6 47 14 96 8 50 16 106 19 126 l4 36 -93 -4 -93 -4 -7 28 c-7 31 -89 322
-95 338 -2 6 21 33 51 60 30 26 56 51 57 54 2 3 -31 48 -72 100 -41 51 -75 96
-75 98 0 2 16 24 37 48 27 33 46 45 74 50 22 4 41 7 44 6 2 0 23 6 45 14 41
15 43 15 60 15 17 0 8 60 -10 61 -8 0 -22 2 -31 4 -9 1 -49 6 -90 9 -92 8
-189 18 -209 22 -8 1 -30 3 -48 3 -30 1 -35 6 -56 54 -13 28 -52 110 -85 181
-34 71 -63 134 -64 139 -1 6 18 12 43 13 33 1 91 24 215 83 288 138 260 119
260 171 0 44 -1 45 -57 75 -32 16 -58 33 -58 37 0 4 33 44 74 90 136 153 145
163 136 168 -4 3 -67 5 -139 5 l-131 0 -26 60 c-43 95 -96 210 -100 214 -2 2
-20 5 -39 6 l-36 3 5 -127 4 -126 -51 -52 c-31 -32 -60 -53 -73 -53 -13 0 -38
19 -65 50 -40 46 -47 49 -74 42 -32 -9 -30 -3 -87 -194 l-23 -78 -115 173
c-119 177 -120 180 -104 261 6 35 5 39 -11 32 -10 -3 -33 -9 -50 -12 -29 -4
-35 0 -75 53 -83 111 -260 315 -418 481 l-40 42 105 243 c103 239 105 243 178
322 41 43 73 80 72 81 -1 1 -47 -8 -102 -22 -150 -35 -135 -52 -135 147 l0
172 -32 -34 c-17 -19 -72 -77 -122 -130 -50 -52 -118 -124 -150 -158 l-60 -64
-45 11 c-25 7 -55 14 -66 17 -16 5 -32 -9 -79 -70 l-58 -77 -27 25 c-28 26
-207 160 -291 217 -67 46 -80 58 -81 78 -2 26 -6 76 -8 85 0 4 -16 16 -33 27
l-33 20 -30 -35 -30 -35 -52 35 c-29 19 -55 35 -58 35 -3 0 -31 16 -61 35 -30
19 -58 35 -62 35 -17 0 -51 48 -102 145 -29 55 -60 105 -69 110 -84 52 -165
88 -230 100 -41 8 -76 13 -78 12 -1 -2 -4 -29 -5 -60 -2 -34 -7 -56 -13 -53
-304 124 -639 246 -719 262 -10 2 -33 8 -50 13 -62 21 -354 90 -461 110 -60
12 -120 23 -131 25 -37 7 -94 16 -142 21 -26 3 -72 10 -102 15 -30 5 -93 12
-140 15 -47 4 -92 8 -100 10 -44 11 -673 28 -683 19z m488 -218 c66 -3 143 -8
170 -11 28 -3 73 -7 100 -10 28 -3 75 -8 105 -11 76 -7 399 -61 485 -81 39 -9
76 -16 83 -16 23 0 12 -15 -33 -41 -25 -15 -45 -31 -45 -37 0 -5 18 -51 39
-102 22 -51 42 -118 46 -149 7 -56 7 -58 -16 -58 -13 1 -49 7 -79 14 -56 13
-120 4 -120 -17 0 -5 28 -90 62 -190 34 -100 67 -201 74 -224 l13 -42 -75 0
c-62 0 -76 3 -80 17 -7 22 -39 87 -65 132 -11 19 -34 61 -51 92 -26 49 -65 87
-257 251 -161 138 -240 198 -274 211 -27 10 -50 17 -52 15 -1 -2 9 -44 24 -94
15 -49 26 -108 25 -130 -1 -22 -3 -50 -3 -61 -1 -20 -5 -21 -59 -18 -50 4 -62
1 -85 -19 -15 -12 -27 -28 -27 -34 0 -7 14 -35 30 -64 36 -61 33 -94 -10 -91
-34 2 -162 14 -185 16 -16 2 -64 7 -105 10 -41 4 -91 9 -110 11 -28 4 -41 -1
-67 -25 -38 -34 -38 -33 -14 -84 12 -24 31 -45 52 -56 19 -9 90 -46 159 -82
69 -36 140 -73 157 -82 l33 -17 -35 -68 -34 -69 36 -30 36 -29 71 18 c113 30
156 26 241 -21 40 -22 83 -40 95 -40 13 0 89 18 169 41 135 37 151 44 196 86
28 24 65 56 83 70 19 16 32 34 32 48 0 20 8 15 57 -36 31 -32 74 -69 97 -82
23 -13 112 -64 198 -114 86 -50 158 -90 160 -88 2 1 45 5 97 9 51 3 97 8 101
11 9 6 66 -56 287 -317 l108 -126 70 -17 c39 -9 101 -26 139 -37 l69 -20 64
68 c34 38 63 73 64 79 1 14 4 25 36 145 25 89 29 122 27 215 -1 107 -3 113
-44 199 -23 49 -45 85 -48 80 -9 -12 -97 -84 -104 -84 -3 0 -22 43 -43 95
l-37 95 -54 0 -53 0 -7 -37 c-17 -95 -12 -97 -147 42 -116 119 -158 148 -186
130 -5 -2 -5 -24 0 -47 10 -57 37 -206 44 -243 6 -34 12 -68 21 -107 6 -31 2
-33 -105 -43 -39 -4 -67 -2 -70 4 -4 6 -5 179 -4 386 l3 375 -74 0 -75 0 -7
-35 c-3 -19 -12 -35 -20 -35 -7 0 -53 56 -101 125 -48 69 -121 171 -160 227
-40 56 -73 106 -73 111 0 5 10 6 23 3 12 -4 29 -9 38 -11 217 -50 597 -175
802 -263 71 -30 76 -35 135 -143 15 -28 32 -59 39 -71 10 -18 7 -24 -16 -43
-14 -13 -45 -28 -69 -35 -32 -10 -42 -18 -42 -35 0 -19 6 -21 49 -22 46 -1 62
-10 234 -126 l185 -125 77 -5 77 -4 36 46 c33 42 59 91 76 145 5 14 10 16 19
8 10 -9 12 -50 11 -169 -2 -87 -3 -233 -4 -326 l-2 -167 188 -306 187 -306 -3
-61 c-1 -34 -3 -104 -3 -155 l-1 -93 -30 54 c-32 57 -53 75 -304 252 -126 89
-136 94 -200 101 -37 4 -69 8 -72 9 -3 1 -30 5 -60 9 -30 4 -66 9 -80 11 -59
9 -247 37 -265 40 -11 1 -58 8 -105 14 -49 7 -104 22 -130 36 -127 66 -444
254 -477 284 -48 42 -212 192 -229 209 -7 6 -16 12 -19 12 -6 0 -2 -57 10
-150 2 -19 7 -57 11 -85 4 -40 37 -106 156 -320 83 -148 151 -271 152 -272 1
-2 234 -70 321 -94 143 -39 386 -109 473 -135 29 -9 85 -33 125 -53 39 -21
127 -66 195 -101 99 -51 119 -65 107 -74 -12 -9 -76 -99 -155 -216 -155 -230
-170 -250 -188 -232 -16 15 -75 70 -262 241 l-45 41 -75 -6 c-62 -5 -89 -14
-155 -49 -44 -23 -129 -68 -190 -100 -60 -32 -114 -61 -120 -65 -5 -4 -55 -31
-110 -60 -55 -29 -127 -68 -161 -86 l-61 -33 -129 197 c-71 108 -142 217 -159
241 -27 39 -41 48 -129 83 -74 29 -128 43 -215 54 -64 8 -132 17 -151 19 -19
3 -66 9 -104 14 l-69 8 -41 -36 c-22 -20 -56 -50 -76 -67 -119 -104 -110 -91
-190 -290 l-75 -189 -336 -3 -336 -2 -112 -116 c-100 -103 -115 -122 -135
-182 -52 -150 -98 -278 -106 -297 -5 -11 -14 -37 -21 -57 -12 -34 -17 -38 -49
-39 -19 0 -73 -2 -120 -4 -47 -2 -146 -6 -221 -9 -123 -5 -142 -8 -193 -33
l-56 -27 -76 -180 c-84 -200 -80 -185 -88 -316 -4 -52 -8 -122 -11 -155 -3
-33 -7 -94 -10 -135 -11 -170 -18 -235 -24 -241 -3 -3 -62 -16 -131 -28 -69
-11 -134 -23 -145 -25 -11 -2 -43 -7 -72 -11 -53 -7 -49 -4 -207 -138 -27 -23
-57 -48 -67 -55 -19 -13 -24 -23 -119 -237 -32 -71 -72 -160 -89 -197 -76
-165 -82 -186 -71 -226 15 -55 100 -413 100 -422 0 -4 -64 -29 -142 -56 -79
-26 -183 -62 -233 -79 l-90 -30 -46 -89 c-45 -86 -65 -110 -290 -347 -40 -42
-65 -55 -295 -148 l-251 -103 -85 -86 c-53 -55 -89 -100 -95 -122 -6 -19 -32
-93 -57 -165 -44 -123 -47 -136 -51 -260 -3 -71 -7 -175 -10 -230 -22 -460
-24 -446 46 -523 28 -31 70 -79 160 -186 12 -13 129 -15 129 -1 0 6 -29 86
-65 178 -63 163 -65 170 -59 236 11 131 -3 109 265 394 l74 79 100 24 c55 13
150 35 210 49 61 14 117 28 125 30 8 2 38 8 65 15 28 6 104 24 171 40 66 16
131 31 145 34 13 3 42 10 64 16 22 5 56 12 75 16 19 3 50 10 68 15 25 8 53 6
128 -11 l97 -22 75 22 c83 24 86 23 97 -39 4 -20 43 -133 87 -251 75 -204 143
-385 209 -565 16 -44 33 -87 37 -95 5 -8 19 -48 32 -88 24 -69 31 -79 135
-180 60 -59 124 -118 140 -132 17 -14 82 -68 145 -120 63 -52 124 -102 135
-111 11 -10 67 -56 125 -104 58 -48 127 -105 154 -128 27 -23 69 -57 93 -76
24 -18 43 -36 44 -40 0 -3 2 -15 4 -26 2 -11 7 -49 10 -85 3 -36 7 -76 10 -90
2 -14 7 -52 10 -85 3 -33 8 -73 10 -90 2 -16 7 -57 10 -90 3 -33 7 -71 10 -85
2 -14 7 -52 10 -85 3 -33 8 -73 10 -90 2 -16 7 -57 10 -90 3 -33 8 -71 10 -85
2 -14 6 -56 10 -93 3 -37 8 -76 9 -85 2 -9 7 -48 11 -87 4 -38 9 -85 11 -103
2 -18 6 -56 9 -85 3 -28 8 -64 10 -80 5 -25 3 -27 -22 -23 -16 3 -44 8 -63 11
-170 27 -506 105 -665 155 -112 35 -308 101 -330 111 -11 5 -60 24 -110 43
-438 166 -960 463 -1355 770 -343 266 -684 601 -934 916 -37 47 -74 93 -82
103 -8 10 -46 61 -84 115 -38 53 -73 102 -78 107 -4 6 -33 48 -64 95 -379 578
-639 1193 -788 1865 -15 72 -31 146 -34 165 -3 19 -8 46 -11 60 -3 14 -7 43
-10 65 -3 22 -7 51 -10 65 -15 79 -42 319 -52 480 -14 210 -7 731 11 865 3 17
7 57 11 90 3 33 7 74 10 90 2 17 6 50 9 75 14 123 83 483 106 555 5 17 11 41
14 55 14 85 115 402 186 590 78 206 234 551 252 558 4 2 8 11 8 21 0 9 4 21 9
27 4 5 25 40 45 77 323 597 802 1182 1311 1602 33 28 62 53 65 56 3 3 73 57
155 119 566 426 1175 729 1851 919 175 49 398 100 534 122 66 10 90 14 145 23
47 8 204 27 265 32 30 3 71 7 90 9 19 2 98 7 175 11 77 3 141 7 142 8 4 3 341
-2 448 -8z m3158 -1198 c56 -45 110 -89 119 -99 10 -10 25 -22 34 -27 12 -7
17 -31 21 -113 4 -98 9 -175 12 -192 0 -4 25 -19 54 -33 l52 -26 79 47 78 46
77 -79 c120 -126 162 -172 229 -252 l63 -75 -50 -45 c-47 -43 -62 -73 -87
-175 -2 -5 -21 -74 -44 -152 -32 -113 -41 -162 -44 -237 -1 -53 0 -99 3 -103
3 -5 80 -9 170 -10 l165 -2 151 78 151 79 68 -111 c61 -99 67 -114 62 -148 -3
-20 -9 -44 -12 -53 -4 -11 4 -15 37 -18 l42 -3 61 -120 c34 -66 68 -136 77
-155 l16 -35 -46 1 c-25 1 -75 -2 -111 -6 -36 -5 -96 -11 -135 -14 -182 -16
-197 -20 -474 -108 l-73 -23 162 -155 162 -155 147 -72 146 -71 132 -6 132 -6
-14 47 c-13 42 -12 49 1 64 14 16 20 16 87 -3 40 -11 79 -24 88 -28 15 -9 74
-185 123 -370 18 -66 22 -96 14 -101 -16 -10 -128 -33 -133 -27 -5 5 -12 56
-14 104 -1 21 -9 37 -24 47 -23 15 -25 14 -68 -41 -123 -159 -130 -165 -182
-167 -45 -2 -47 -1 -47 25 0 23 -17 40 -115 111 -63 46 -114 87 -115 91 0 4
42 28 93 53 114 58 119 62 115 94 -3 24 -22 33 -218 114 l-215 88 -85 -6 c-47
-3 -98 -8 -115 -10 -16 -3 -50 -5 -73 -6 -24 -1 -50 -9 -58 -16 -12 -12 -14
-10 -14 19 0 28 -15 49 -108 145 -99 103 -113 114 -192 148 -107 46 -111 49
-100 83 5 15 16 64 26 110 9 45 20 82 23 83 3 0 83 2 176 4 94 1 179 5 190 8
11 2 56 8 100 11 44 4 94 15 112 24 17 9 84 66 148 127 l117 110 -29 23 c-27
22 -33 23 -143 17 -133 -6 -316 -17 -345 -19 -18 -2 -52 11 -95 35 -8 5 -26
14 -40 20 -96 40 -99 43 -101 79 0 19 -2 44 -4 55 -2 11 -7 51 -10 90 -3 38
-8 81 -10 95 -2 14 -7 54 -10 90 -5 44 -25 111 -62 205 -48 122 -197 503 -237
605 -8 19 -23 58 -35 86 -24 59 -141 383 -141 390 0 11 18 -1 113 -78z m721
-2784 c31 -127 44 -160 97 -253 81 -142 79 -139 130 -145 24 -3 60 -8 79 -11
19 -3 56 -8 83 -11 l47 -5 0 71 c0 50 4 72 14 76 7 3 70 -6 139 -20 70 -15
129 -26 131 -26 3 0 -18 -21 -47 -47 -91 -84 -88 -77 -60 -153 20 -54 92 -181
113 -200 3 -3 22 -30 42 -60 20 -30 69 -84 109 -120 41 -36 89 -78 108 -95 19
-16 55 -49 80 -72 52 -48 55 -47 93 38 l20 45 79 -1 c43 -1 81 -3 83 -6 34
-33 43 -919 11 -1087 -1 -9 -6 -46 -9 -82 -4 -36 -8 -76 -10 -90 -2 -14 -6
-50 -10 -80 -18 -141 -63 -368 -111 -565 -221 -899 -681 -1749 -1320 -2435
-135 -145 -322 -324 -460 -441 -22 -19 -42 -36 -45 -39 -73 -74 -421 -326
-616 -446 -61 -38 -119 -74 -130 -81 -58 -37 -128 -72 -134 -68 -4 3 -10 15
-12 27 -7 34 -177 682 -198 758 -10 36 -38 139 -61 230 -32 127 -66 225 -150
428 -60 144 -109 265 -109 268 0 3 -25 55 -55 115 l-55 109 0 96 c0 75 4 105
21 140 19 43 52 112 171 364 28 58 67 141 88 185 21 44 62 132 93 195 30 63
70 149 90 190 19 41 58 125 87 185 140 296 132 274 126 343 -3 35 -12 82 -20
105 -8 23 -46 132 -84 242 -39 110 -92 263 -119 340 l-49 140 -3 230 c-5 369
-2 347 -56 460 -26 55 -51 108 -56 117 -7 14 4 24 64 57 58 32 100 69 217 192
80 84 200 209 266 278 197 204 172 161 247 436 l22 80 45 6 c28 3 112 39 218
92 l173 86 112 -76 c62 -42 117 -81 124 -87 9 -9 9 -29 -2 -91 -17 -98 -23
-143 -31 -202 -3 -26 -6 -50 -7 -53 -1 -4 31 -86 72 -182 l74 -176 111 -44
111 -44 137 73 137 74 27 85 c14 47 25 87 23 89 -3 2 -44 6 -93 9 -49 3 -90 7
-92 9 -7 6 -104 362 -114 416 -5 28 -12 72 -16 98 -7 53 -8 60 -22 121 -5 23
-6 42 -2 42 4 0 24 -66 44 -146z"/>
<path d="M7343 9848 c-41 -9 -42 -10 -37 -41 4 -18 12 -50 19 -72 12 -35 12
-42 -3 -52 -9 -7 -24 -14 -34 -14 -10 -1 -21 -2 -25 -3 -5 -1 -28 -6 -53 -10
-25 -5 -54 -10 -65 -13 -35 -7 -110 -22 -145 -28 -14 -3 -34 -7 -45 -9 -11 -3
-23 -5 -26 -5 -3 -1 -5 -32 -5 -70 l1 -70 73 -51 c41 -29 71 -55 67 -58 -4 -4
-86 -47 -182 -97 -246 -126 -246 -129 27 -190 l75 -16 144 31 c182 39 187 37
148 -69 -15 -39 -25 -71 -23 -71 2 0 67 30 144 68 l141 67 157 235 c152 226
157 236 155 282 -2 59 -8 89 -19 100 -8 8 -267 112 -371 149 -60 21 -58 21
-118 7z"/>
<path d="M10275 6719 c-46 -24 -185 -98 -265 -142 -70 -37 -70 -37 -75 -75 -3
-27 4 -40 40 -80 25 -26 44 -51 44 -57 0 -5 -44 -73 -98 -150 -55 -77 -96
-143 -93 -147 6 -5 72 -16 110 -17 10 -1 12 -9 8 -28 -4 -16 -8 -37 -10 -48
-5 -25 -56 -272 -62 -300 -2 -11 -7 -36 -10 -57 l-6 -36 74 -1 74 -1 59 77
c33 42 69 87 80 99 11 12 45 54 75 93 30 39 58 71 61 71 4 0 30 -17 57 -37 28
-21 58 -42 67 -48 14 -9 14 -13 -3 -45 -10 -19 -56 -107 -101 -194 l-83 -160
-5 -146 -4 -147 124 3 125 3 125 -182 c68 -100 132 -195 143 -211 20 -32 219
-196 238 -196 15 0 68 54 61 62 -4 4 -55 192 -70 258 -2 8 -12 49 -23 90 -11
41 -22 87 -26 102 -7 31 -17 30 102 13 20 -3 69 -10 107 -15 39 -6 82 -13 98
-16 29 -6 35 6 14 28 -7 7 -60 76 -117 153 -126 169 -114 153 -145 191 -14 18
-25 34 -25 38 0 6 136 -2 158 -9 7 -3 -9 26 -35 63 -117 165 -87 139 -338 300
-77 50 -151 92 -165 94 -24 3 -35 31 -76 198 -19 77 -18 83 7 75 82 -27 123
-33 141 -24 18 10 18 11 -1 42 -19 32 -202 355 -268 475 -19 34 -38 62 -42 62
-3 0 -24 -9 -46 -21z"/>
<path d="M10977 6498 c-43 -139 -107 -378 -107 -399 0 -12 5 -36 10 -53 6 -17
24 -83 41 -146 26 -101 34 -119 67 -150 20 -19 114 -105 207 -191 156 -143
176 -158 241 -181 l72 -26 21 47 22 46 -25 65 c-13 36 -27 73 -31 82 -10 26
29 41 125 45 47 2 123 5 170 7 47 3 108 5 135 5 l50 1 -159 155 c-87 86 -157
157 -155 159 2 2 42 23 88 45 47 23 87 43 89 46 3 2 -14 29 -37 59 l-42 54
-67 -4 c-37 -2 -78 -6 -92 -8 -14 -3 -31 -2 -36 2 -10 7 -46 74 -42 77 2 1 20
12 41 24 24 15 36 29 33 37 -6 16 -86 124 -92 124 -2 0 -95 25 -206 56 -253
69 -237 65 -274 71 -30 5 -31 3 -47 -49z"/>
<path d="M11525 10527 c-7 -18 -16 -43 -21 -57 -5 -14 -43 -76 -84 -137 l-75
-111 -38 31 c-42 33 -43 32 -79 -33 -14 -25 -57 -103 -97 -173 -81 -145 -78
-114 -40 -333 10 -61 21 -126 23 -145 5 -34 14 -93 21 -133 3 -11 34 -49 70
-83 61 -58 68 -61 93 -52 54 22 308 111 342 121 19 6 61 36 95 68 33 32 77 74
98 92 29 28 37 42 37 70 l0 36 -45 -6 -46 -5 7 48 c5 40 21 68 88 160 129 173
122 158 94 197 -12 18 -23 34 -23 35 -1 1 -50 -13 -110 -32 -141 -45 -145 -45
-146 3 0 20 -2 46 -4 57 -2 11 -7 45 -10 75 -6 55 -8 69 -18 145 -3 22 -9 68
-12 103 -4 34 -10 64 -14 67 -4 2 -27 8 -50 14 -42 9 -43 9 -56 -22z"/>
<path d="M12319 10443 c-1 -37 2 -199 5 -233 4 -41 -5 -60 -53 -117 -40 -48
-50 -51 -76 -23 -20 22 -73 27 -80 8 -2 -7 -6 -31 -9 -53 -3 -22 -8 -51 -10
-64 -3 -14 -8 -47 -11 -74 -3 -28 -8 -53 -10 -57 -2 -3 -6 -28 -9 -55 -4 -27
-8 -57 -10 -65 -6 -21 -19 -111 -19 -135 0 -44 21 -237 27 -242 1 -2 39 -4 83
-6 80 -4 85 -3 255 63 201 77 214 84 244 119 24 28 44 50 140 154 l64 69 0 74
c0 41 -3 74 -7 75 -5 0 -17 2 -27 4 -11 2 -38 5 -60 6 -77 5 -71 -34 -51 324
l5 90 -45 33 c-24 17 -48 32 -53 32 -5 0 -24 -22 -43 -50 -19 -27 -37 -50 -40
-50 -6 0 -33 29 -117 128 -54 61 -91 80 -93 45z"/>
</g>
</svg>
